…
Archivos de texto plano: txt, csv, tsv

Archivos MS excel, SPSS, SAS

Base de Datos: MySQL, SQLServer, PostgreSQL

APIs, sitios webs

library(tidyverse) # combinacion de paquetes para importar + transformar + visualizar

comunas <- read_csv("data/codigos_comunales.csv")
comunas

## # A tibble: 347 x 2
##    CODIGO COMUNA       
##     <int> <chr>        
##  1  15101 Arica        
##  2  15102 Camarones    
##  3  15201 Putre        
##  4  15202 General Lagos
##  5   1101 Iquique      
##  6   1402 Camiña       
##  7   1403 Colchane     
##  8   1404 Huara        
##  9   1405 Pica         
## 10   1401 Pozo Almonte 
## # ... with 337 more rows

library(haven) # SPSS SAS STATA

casen <- read_sav("data/casen/Casen 2017.sav")
casen

## # A tibble: 216,439 x 803
##      folio     o id_vivienda hogar region provincia comuna zona   expr
##      <dbl> <dbl>       <dbl> <dbl> <dbl+> <dbl+lbl> <dbl+> <dbl> <dbl>
##  1 1.10e11     1  1101100202     1 1      11        1101   1        39
##  2 1.10e11     1  1101100203     1 1      11        1101   1        39
##  3 1.10e11     1  1101100204     1 1      11        1101   1        39
##  4 1.10e11     2  1101100204     1 1      11        1101   1        39
##  5 1.10e11     1  1101100205     1 1      11        1101   1        39
##  6 1.10e11     2  1101100205     1 1      11        1101   1        39
##  7 1.10e11     3  1101100205     1 1      11        1101   1        39
##  8 1.10e11     1  1101100206     1 1      11        1101   1        39
##  9 1.10e11     2  1101100206     1 1      11        1101   1        39
## 10 1.10e11     1  1101100209     1 1      11        1101   1        39
## # ... with 216,429 more rows, and 794 more variables: expc <dbl>,
## #   expr_div <dbl>, varstrat <dbl>, varunit <dbl>, fecha_dia <dbl>,
## #   fecha_mes <dbl>, fecha_año <dbl>, tot_hog <dbl>, tot_per <dbl>,
## #   tot_par <dbl>, tot_nuc <dbl>, pres <dbl+lbl>, marca <chr>,
## #   pco1 <dbl+lbl>, sexo <dbl+lbl>, edad <dbl>, h4m <dbl+lbl>,
## #   h4a <dbl+lbl>, ecivil <dbl+lbl>, h6l <dbl>, h6h <dbl>,
## #   pareja <dbl+lbl>, nucleo <dbl>, pco2 <dbl+lbl>, h9a <dbl+lbl>,
## #   h9a_esp <chr>, h9 <dbl+lbl>, h10a <dbl+lbl>, h10b <dbl+lbl>,
## #   h10c <dbl+lbl>, h10d <dbl+lbl>, h10e <dbl+lbl>, h10f <dbl+lbl>,
…
https://github.com/gadenbuie/tidy-animated-verbs

casen_comuna <- casen %>% 
  mutate(comuna = as.numeric(comuna)) %>% 
  group_by(comuna) %>% 
  summarise(ingreso_promedio_mm = mean(y1, na.rm = TRUE)/1000)
casen_comuna

## # A tibble: 324 x 2
##    comuna ingreso_promedio_mm
##     <dbl>               <dbl>
##  1   1101                531.
##  2   1107                390.
##  3   1401                430.
##  4   1402                436.
##  5   1404                352.
##  6   1405                432.
##  7   2101                565.
##  8   2102                449.
##  9   2103                467.
## 10   2104                478.
## # ... with 314 more rows

personas_resumen <- personas %>% 
  group_by(region, comuna) %>% 
  summarise(personas = n(), escolaridad_promedio = mean(ESCOLARIDAD)) %>% 
  collect()

personas_resumen

## # A tibble: 346 x 4
## # Groups:   region [15]
##    region comuna personas escolaridad_promedio
##     <int>  <int>    <dbl>                <dbl>
##  1      1   1101   191468                 12.6
##  2      1   1107   108375                 12.2
##  3      1   1401    15711                 11.8
##  4      1   1402     1250                 15.2
##  5      1   1403     1728                 15.9
##  6      1   1404     2730                 13.1
##  7      1   1405     9296                 14.4
##  8      2   2101   361873                 13.3
##  9      2   2102    13467                 13.4
## 10      2   2103    10186                 13.9
## # ... with 336 more rows

data <- comunas %>%
  inner_join(personas_resumen, by = c("CODIGO" = "comuna")) %>% 
  inner_join(casen_comuna, by = c("CODIGO" = "comuna"))

data

## # A tibble: 303 x 6
##    CODIGO COMUNA     region personas escolaridad_promed~ ingreso_promedio~
##     <dbl> <chr>       <int>    <dbl>               <dbl>             <dbl>
##  1  15101 Arica          15   221364                12.9              494.
##  2  15102 Camarones      15     1255                11.4              322.
##  3  15201 Putre          15     2765                12.1              495.
##  4   1101 Iquique         1   191468                12.6              531.
##  5   1402 Camiña          1     1250                15.2              436.
##  6   1404 Huara           1     2730                13.1              352.
##  7   1405 Pica            1     9296                14.4              432.
##  8   1401 Pozo Almo~      1    15711                11.8              430.
##  9   1107 Alto Hosp~      1   108375                12.2              390.
## 10   2101 Antofagas~      2   361873                13.3              565.
## # ... with 293 more rows

data <- data %>% 
  mutate(
    region = factor(region),
    region2 = fct_lump(region, n = 8)
    )

data

## # A tibble: 303 x 7
##    CODIGO COMUNA region personas escolaridad_pro~ ingreso_promedi~ region2
##     <dbl> <chr>  <fct>     <dbl>            <dbl>            <dbl> <fct>  
##  1  15101 Arica  15       221364             12.9             494. Other  
##  2  15102 Camar~ 15         1255             11.4             322. Other  
##  3  15201 Putre  15         2765             12.1             495. Other  
##  4   1101 Iquiq~ 1        191468             12.6             531. Other  
##  5   1402 Camiña 1          1250             15.2             436. Other  
##  6   1404 Huara  1          2730             13.1             352. Other  
##  7   1405 Pica   1          9296             14.4             432. Other  
##  8   1401 Pozo ~ 1         15711             11.8             430. Other  
##  9   1107 Alto ~ 1        108375             12.2             390. Other  
## 10   2101 Antof~ 2        361873             13.3             565. Other  
## # ... with 293 more rows
…
Recordemos

data

## # A tibble: 303 x 7
##    CODIGO COMUNA region personas escolaridad_pro~ ingreso_promedi~ region2
##     <dbl> <chr>  <fct>     <dbl>            <dbl>            <dbl> <fct>  
##  1  15101 Arica  15       221364             12.9             494. Other  
##  2  15102 Camar~ 15         1255             11.4             322. Other  
##  3  15201 Putre  15         2765             12.1             495. Other  
##  4   1101 Iquiq~ 1        191468             12.6             531. Other  
##  5   1402 Camiña 1          1250             15.2             436. Other  
##  6   1404 Huara  1          2730             13.1             352. Other  
##  7   1405 Pica   1          9296             14.4             432. Other  
##  8   1401 Pozo ~ 1         15711             11.8             430. Other  
##  9   1107 Alto ~ 1        108375             12.2             390. Other  
## 10   2101 Antof~ 2        361873             13.3             565. Other  
## # ... with 293 more rows
…
Ejemplo 2: Reducción de Dimensionalidad

Recordemos la CASEN:

casen

## # A tibble: 216,439 x 803
##      folio     o id_vivienda hogar region provincia comuna zona   expr
##      <dbl> <dbl>       <dbl> <dbl> <dbl+> <dbl+lbl> <dbl+> <dbl> <dbl>
##  1 1.10e11     1  1101100202     1 1      11        1101   1        39
##  2 1.10e11     1  1101100203     1 1      11        1101   1        39
##  3 1.10e11     1  1101100204     1 1      11        1101   1        39
##  4 1.10e11     2  1101100204     1 1      11        1101   1        39
##  5 1.10e11     1  1101100205     1 1      11        1101   1        39
##  6 1.10e11     2  1101100205     1 1      11        1101   1        39
##  7 1.10e11     3  1101100205     1 1      11        1101   1        39
##  8 1.10e11     1  1101100206     1 1      11        1101   1        39
##  9 1.10e11     2  1101100206     1 1      11        1101   1        39
## 10 1.10e11     1  1101100209     1 1      11        1101   1        39
## # ... with 216,429 more rows, and 794 more variables: expc <dbl>,
## #   expr_div <dbl>, varstrat <dbl>, varunit <dbl>, fecha_dia <dbl>,
## #   fecha_mes <dbl>, fecha_año <dbl>, tot_hog <dbl>, tot_per <dbl>,
## #   tot_par <dbl>, tot_nuc <dbl>, pres <dbl+lbl>, marca <chr>,
## #   pco1 <dbl+lbl>, sexo <dbl+lbl>, edad <dbl>, h4m <dbl+lbl>,
## #   h4a <dbl+lbl>, ecivil <dbl+lbl>, h6l <dbl>, h6h <dbl>,
## #   pareja <dbl+lbl>, nucleo <dbl>, pco2 <dbl+lbl>, h9a <dbl+lbl>,
## #   h9a_esp <chr>, h9 <dbl+lbl>, h10a <dbl+lbl>, h10b <dbl+lbl>,
## #   h10c <dbl+lbl>, h10d <dbl+lbl>, h10e <dbl+lbl>, h10f <dbl+lbl>,
…
Y por dichas variables agrupar por comuna(*)

casen_c

## # A tibble: 324 x 730
##    region comuna tot_hog tot_par tot_nuc tot_per  edad     y1    s4    s5
##    <chr>  <chr>    <dbl>   <dbl>   <dbl>   <dbl> <dbl>  <dbl> <dbl> <dbl>
##  1 Regió~ Iquiq~    1.20   0.876    1.43    4.28  34.6 5.63e5  2.46  23.3
##  2 Regió~ Alto ~    1.16   0.901    1.39    4.75  28.8 4.28e5  2.64  22.2
##  3 Regió~ Pozo ~    1.08   0.824    1.26    4.11  34.4 4.41e5  3.06  21.7
##  4 Regió~ Camiña    1      0.829    1.22    3.95  36.6 4.36e5  3.7   23.2
##  5 Regió~ Huara     1.01   0.784    1.26    4.03  39.2 3.52e5  3.10  22.1
##  6 Regió~ Pica      1.12   0.689    1.13    3     44.7 4.66e5  2.71  23.9
##  7 Regió~ Antof~    1.23   0.806    1.35    4.26  34.2 6.30e5  2.45  23.2
##  8 Regió~ Mejil~    1.09   0.817    1.31    4.48  32.5 4.55e5  2.62  21.3
##  9 Regió~ Sierr~    1.23   0.667    1.06    3.29  32.2 4.89e5  2.52  22.1
## 10 Regió~ Taltal    1      0.933    1.40    4.70  35.4 4.90e5  2.74  21.5
## # ... with 314 more rows, and 720 more variables: v8 <dbl>, y0101 <dbl>,
## #   y0301 <dbl>, sexo_Mujer <dbl>, sexo_Otra <dbl>,
## #   `ecivil_Casado(a)` <dbl>, ecivil_Otra <dbl>,
## #   `ecivil_Soltero(a)` <dbl>, `pareja_No tiene pareja en el hogar` <dbl>,
## #   pareja_Otra <dbl>, e1_Otra <dbl>, `e1_Sí, lee y escribe` <dbl>,
## #   o1_No <dbl>, o1_Otra <dbl>, o1_Sí <dbl>, o2_NA <dbl>, o2_Otra <dbl>,
## #   y3a_NA <dbl>, y3a_Otra <dbl>, y27a_No <dbl>, y27a_Otra <dbl>,
## #   y27b_No <dbl>, y27b_Otra <dbl>, y27c_No <dbl>, y27c_Otra <dbl>,
## #   y27c_Si <dbl>, y27d_No <dbl>, y27d_Otra <dbl>, y27e_No <dbl>,
…
Transformar

casen_umap <- casen_c %>% 
  select(region, comuna) %>% 
  bind_cols(as.data.frame(umap_casen_c))
casen_umap

## # A tibble: 324 x 4
##    region                comuna            V1     V2
##    <chr>                 <chr>          <dbl>  <dbl>
##  1 Región de Tarapacá    Iquique        13.8   28.7 
##  2 Región de Tarapacá    Alto Hospicio  -1.73  10.6 
##  3 Región de Tarapacá    Pozo Almonte    5.42  23.0 
##  4 Región de Tarapacá    Camiña          2.59  11.1 
##  5 Región de Tarapacá    Huara           2.04  -4.24
##  6 Región de Tarapacá    Pica            9.87  20.0 
##  7 Región de Antofagasta Antofagasta    15.5   31.4 
##  8 Región de Antofagasta Mejillones      5.59  23.1 
##  9 Región de Antofagasta Sierra Gorda    7.90  25.3 
## 10 Región de Antofagasta Taltal         10.2   21.6 
## # ... with 314 more rows
…
data <- left_join(data, comuna_tipohogar, by = c("CODIGO" = "COMUNA"))
data

## # A tibble: 303 x 8
##    CODIGO COMUNA region personas escolaridad_pro~ ingreso_promedi~ region2
##     <dbl> <chr>  <fct>     <dbl>            <dbl>            <dbl> <fct>  
##  1  15101 Arica  15       221364             12.9             494. Other  
##  2  15102 Camar~ 15         1255             11.4             322. Other  
##  3  15201 Putre  15         2765             12.1             495. Other  
##  4   1101 Iquiq~ 1        191468             12.6             531. Other  
##  5   1402 Camiña 1          1250             15.2             436. Other  
##  6   1404 Huara  1          2730             13.1             352. Other  
##  7   1405 Pica   1          9296             14.4             432. Other  
##  8   1401 Pozo ~ 1         15711             11.8             430. Other  
##  9   1107 Alto ~ 1        108375             12.2             390. Other  
## 10   2101 Antof~ 2        361873             13.3             565. Other  
## # ... with 293 more rows, and 1 more variable: ttdata <list>
…
