…
Archivos de texto plano: txt, csv, tsv

Archivos MS excel, SPSS, SAS

Base de Datos: MySQL, SQLServer, PostgreSQL

APIs

library(tidyverse)

comunas <- read_csv("data/codigos_comunales.csv")
comunas

## # A tibble: 347 x 2
##    CODIGO COMUNA       
##     <int> <chr>        
##  1  15101 Arica        
##  2  15102 Camarones    
##  3  15201 Putre        
##  4  15202 General Lagos
##  5   1101 Iquique      
##  6   1402 Camiña       
##  7   1403 Colchane     
##  8   1404 Huara        
##  9   1405 Pica         
## 10   1401 Pozo Almonte 
## # ... with 337 more rows

library(haven)

casen <- read_sav("data/casen/Casen 2015.sav")
casen

## # A tibble: 266,968 x 776
##       folio     o id_vivienda region  provincia comuna zona  hogar tot_hog
##       <dbl> <dbl>       <dbl> <dbl+l> <dbl+lbl> <dbl+> <dbl> <dbl>   <dbl>
##  1  1.10e10     1  1101100101 1       11        1101   1         1       1
##  2  1.10e10     2  1101100101 1       11        1101   1         1       1
##  3  1.10e10     3  1101100101 1       11        1101   1         1       1
##  4  1.10e10     4  1101100101 1       11        1101   1         1       1
##  5  1.10e10     5  1101100101 1       11        1101   1         1       1
##  6  1.10e10     1  1101100102 1       11        1101   1         1       2
##  7  1.10e10     1  1101100103 1       11        1101   1         1       1
##  8  1.10e10     1  1101100104 1       11        1101   1         1       1
##  9  1.10e10     2  1101100104 1       11        1101   1         1       1
## 10  1.10e10     1  1101100105 1       11        1101   1         1       1
## # ... with 266,958 more rows, and 767 more variables: tot_par <dbl>,
## #   tot_nuc <dbl>, tot_per <dbl>, pres <dbl+lbl>, marca <chr>,
## #   pco1 <dbl+lbl>, sexo <dbl+lbl>, edad <dbl>, ecivil <dbl+lbl>,
## #   h5l <dbl>, h5h <dbl>, pareja <dbl+lbl>, nucleo <dbl+lbl>,
## #   pco2 <dbl+lbl>, e1 <dbl+lbl>, e2a <dbl+lbl>, e2b <dbl+lbl>,
## #   e2c <dbl+lbl>, e3 <dbl+lbl>, e4 <dbl+lbl>, e4_esp <chr>,
## #   e5a <dbl+lbl>, e5a_esp <chr>, e5b <dbl+lbl>, e6a <dbl+lbl>,
## #   e6b <dbl+lbl>, e6c_cod <dbl+lbl>, e6c <chr>, e6d <dbl+lbl>,
## #   e7nom <chr>, e7dir <chr>, e7com <chr>, e7rbd <dbl+lbl>, e7dv <dbl>,
…
Transformar

casen_comuna <- casen %>% 
  mutate(comuna = as.numeric(comuna)) %>% 
  group_by(comuna) %>% 
  summarise(ingreso_promedio_mm = mean(y1, na.rm = TRUE)/1000)
casen_comuna

## # A tibble: 324 x 2
##    comuna ingreso_promedio_mm
##     <dbl>               <dbl>
##  1   1101                551.
##  2   1107                418.
##  3   1401                423.
##  4   1402                260.
##  5   1404                316.
##  6   1405                426.
##  7   2101                535.
##  8   2102                568.
##  9   2103                374.
## 10   2104                380.
## # ... with 314 more rows

personas_resumen <- personas %>% 
  group_by(region, comuna) %>% 
  summarise(personas = n(), escolaridad_promedio = mean(ESCOLARIDAD)) %>% 
  collect()

personas_resumen

## # A tibble: 346 x 4
## # Groups:   region [15]
##    region comuna personas escolaridad_promedio
##     <int>  <int>    <dbl>                <dbl>
##  1      1   1101   191468                 12.6
##  2      1   1107   108375                 12.2
##  3      1   1401    15711                 11.8
##  4      1   1402     1250                 15.2
##  5      1   1403     1728                 15.9
##  6      1   1404     2730                 13.1
##  7      1   1405     9296                 14.4
##  8      2   2101   361873                 13.3
##  9      2   2102    13467                 13.4
## 10      2   2103    10186                 13.9
## # ... with 336 more rows

data <- comunas %>%
  inner_join(personas_resumen, by = c("CODIGO" = "comuna")) %>% 
  inner_join(casen_comuna, by = c("CODIGO" = "comuna"))

data

## # A tibble: 324 x 6
##    CODIGO COMUNA        region personas escolaridad_prom~ ingreso_promedi~
##     <dbl> <chr>          <int>    <dbl>             <dbl>            <dbl>
##  1  15101 Arica             15   221364              12.9             402.
##  2  15102 Camarones         15     1255              11.4             314.
##  3  15201 Putre             15     2765              12.1             326.
##  4   1101 Iquique            1   191468              12.6             551.
##  5   1402 Camiña             1     1250              15.2             260.
##  6   1404 Huara              1     2730              13.1             316.
##  7   1405 Pica               1     9296              14.4             426.
##  8   1401 Pozo Almonte       1    15711              11.8             423.
##  9   1107 Alto Hospicio      1   108375              12.2             418.
## 10   2101 Antofagasta        2   361873              13.3             535.
## # ... with 314 more rows

data <- data %>% 
  mutate(
    region = factor(region),
    region2 = fct_lump(region, n = 8)
    )

data

## # A tibble: 324 x 7
##    CODIGO COMUNA region personas escolaridad_pro~ ingreso_promedi~ region2
##     <dbl> <chr>  <fct>     <dbl>            <dbl>            <dbl> <fct>  
##  1  15101 Arica  15       221364             12.9             402. Other  
##  2  15102 Camar~ 15         1255             11.4             314. Other  
##  3  15201 Putre  15         2765             12.1             326. Other  
##  4   1101 Iquiq~ 1        191468             12.6             551. Other  
##  5   1402 Camiña 1          1250             15.2             260. Other  
##  6   1404 Huara  1          2730             13.1             316. Other  
##  7   1405 Pica   1          9296             14.4             426. Other  
##  8   1401 Pozo ~ 1         15711             11.8             423. Other  
##  9   1107 Alto ~ 1        108375             12.2             418. Other  
## 10   2101 Antof~ 2        361873             13.3             535. Other  
## # ... with 314 more rows
…
Recordemos

data

## # A tibble: 324 x 7
##    CODIGO COMUNA region personas escolaridad_pro~ ingreso_promedi~ region2
##     <dbl> <chr>  <fct>     <dbl>            <dbl>            <dbl> <fct>  
##  1  15101 Arica  15       221364             12.9             402. Other  
##  2  15102 Camar~ 15         1255             11.4             314. Other  
##  3  15201 Putre  15         2765             12.1             326. Other  
##  4   1101 Iquiq~ 1        191468             12.6             551. Other  
##  5   1402 Camiña 1          1250             15.2             260. Other  
##  6   1404 Huara  1          2730             13.1             316. Other  
##  7   1405 Pica   1          9296             14.4             426. Other  
##  8   1401 Pozo ~ 1         15711             11.8             423. Other  
##  9   1107 Alto ~ 1        108375             12.2             418. Other  
## 10   2101 Antof~ 2        361873             13.3             535. Other  
## # ... with 314 more rows
…
